Todo esto puede ser basura 
Todo esto puede ser basura 
Todo esto puede ser basura 
Todo esto puede ser basura 
Todo esto puede ser basura 
Todo esto puede ser basura 
Todo esto puede ser basura 
Todo esto puede ser basura 






Prueba de lectura json 1

CARRETERA, RUTA 1 KM. 79 //OFICINA

(0983)210931

Timbrado N° 12372573

Código Control 96950912

Inicio de Vigencia 26/09/2017

RUC 80085929 - 4

Comprobante de Retención Virtual

001-002-0002389

Fecha Emisión:26/06/2020

Condición de Venta:CONTADOCRÉDITOX

RUC / Cédula de Identidad:80013979 - 8

Nombre o Razón Social:TECNOLOGIA EN ELECTRONICA E INFORMATICA S.A

Dirección:CECILIO DA SILVA N° 1001 ESQ FEDERACION RUSA

Número de Comprobante:000-000-0098780

Fecha del Comprobante:01/06/2020

Moneda:Guarani

 

Cantidad

Descripción

Precio Unitario

Impuesto al Valor Agregado

Exentas

IVA 5%

IVA 10%

1

producto

1.000.000

0

0

1.010.000

 

					
 

					
 

					
 

					

 



Valor Parcial

0

0

2.754.770

Total Comprobante

2.754.770

Liquidación del IVA:

(5%) 0

(10%) 250.434

(Total) 250.434

Retenciones (En Guaraníes)

Renta %

Renta (Cabezas)

Renta (Toneladas)

IVA 5%

IVA 10%

Base de la Retención

0

0

0

0

250.434

Factor de la retención

- %

0

0

0 %

70 %

TOTAL RETENIDO

0

0

0

0

175.304

TOTAL GENERAL RETENIDO




175.305

 

 

